Place,Name,Country,Age,BodyweightKg,Division,WeightClassKg,Equipment,Squat1Kg,Squat2Kg,Squat3Kg,Squat4Kg,Best3SquatKg,Bench1Kg,Bench2Kg,Bench3Kg,Bench4Kg,Best3BenchKg,Deadlift1Kg,Deadlift2Kg,Deadlift3Kg,Deadlift4Kg,Best3DeadliftKg,TotalKg,Sex,Event,BirthDate
1,Veronika Ťapková,Slovakia,18,55.2,Teen + Juniors,60,Wraps,100,110,115,-120,115,40.5,45,-50,,45,100,110,115,-120,115,275,F,SBD,
1,Ela Štecová,Slovakia,17,60.1,Teen + Juniors,67.5,Wraps,85,-95,-95,,85,37.5,42.5,-47.5,,42.5,90,100,112.5,,112.5,240,F,SBD,
1,Pavlína Rakučáková,Slovakia,19,80.2,Teen + Juniors,82.5,Wraps,150,160,170,180,170,90,95,100,105.5,100,190,200,210,-215.5,210,480,F,SBD,
2,Petra Vaščáková,Slovakia,16,79,Teen + Juniors,82.5,Wraps,145,150,155,,155,65,67.5,70,,70,150,160,165,,165,390,F,SBD,
1,Kristína Kusyová,Slovakia,22,47.7,Teen + Juniors,52,Wraps,-70,70,80,,80,40,-47.5,-47.5,,40,70,80,-85,,80,200,F,SBD,
1,Monika Vaľková,Slovakia,21,67.3,Teen + Juniors,67.5,Wraps,165,175,-180,,175,95,-100,-100,,95,170,180,-190,,180,450,F,SBD,
1,Natália Poprocká,Slovakia,21,75.5,Teen + Juniors,82.5,Wraps,145,152.5,160,-165,160,70,72.5,75.5,-77,75.5,120,130,140,,140,375.5,F,SBD,
2,Kristína Prašnická,Slovakia,23,71,Teen + Juniors,82.5,Wraps,135,145,155,-160.5,155,60,-70,-70,,60,142.5,152.5,-162.5,,152.5,367.5,F,SBD,
3,Sára Lemesányiová,Slovakia,20,78.2,Teen + Juniors,82.5,Wraps,127.5,140,150,,150,60,65,-67.5,,65,127.5,140,-152.5,,140,355,F,SBD,
1,Radoslava Tóth,Slovakia,34,49.9,Open,52,Wraps,75,80,85,,85,45,50,-52.5,,50,100,105,112.5,,112.5,247.5,F,SBD,
2,Ester Saccardin,Slovakia,35,51.8,Open,52,Wraps,75,-82.5,-87.5,,75,35,37.5,40,,40,87.5,95,100,,100,215,F,SBD,
1,Lucia Ďurčová,Slovakia,24,58.5,Open,60,Wraps,132.5,135,137.5,,137.5,47.5,-52.5,-52.5,,47.5,150,158,162,165,162,347,F,SBD,
1,Šarlota Kaňuková,Slovakia,27,65,Open,67.5,Wraps,120,125,130,,130,52.5,57.5,60,,60,130,140,147.5,,147.5,337.5,F,SBD,
2,Veronika Greinerová,Slovakia,26,67.1,Open,67.5,Wraps,90,-100,-100,,90,-65,67.5,-70,,67.5,115,125,130,,130,287.5,F,SBD,
1,Miroslava Hrašková,Slovakia,34,80,Open,82.5,Wraps,100,105,107.5,,107.5,50,55,60,,60,130,140,145,,145,312.5,F,SBD,
2,Kristína Bihálová,Slovakia,28,76,Open,82.5,Wraps,90,-95,-95,,90,-45,47.5,-52.5,,47.5,100,110,-122.5,,110,247.5,F,SBD,
1,Emilija Zailac,Slovakia,30,101.8,Open,82.5+,Wraps,110,120,130,-140,130,50,57.5,60,-65,60,130,145,155,-160,155,345,F,SBD,
2,Natália Szárazová,Slovakia,29,87.7,Open,82.5+,Wraps,-115,115,120,-130.5,120,47.5,50.5,-55,,50.5,120,-130.5,-132.5,,120,290.5,F,SBD,
1,Elena Šimová,Slovakia,45,75,Masters,82.5,Wraps,185,195,205,,205,100,105,110,,110,180,-190,190,,190,505,F,SBD,
2,Klaudia Tanczos,Slovakia,49,74.4,Masters,82.5,Wraps,-75,75,80,,80,45,48,-50,,48,100,105,108,,108,236,F,SBD,
DQ,Andrea Chromčová,Slovakia,46,78.8,Masters,82.5,Wraps,-100,100,102.5,,102.5,-67.5,-67.5,-67.5,,,,,,,,,F,SBD,
DQ,Zuzana Gallerová,Slovakia,50,66.5,Masters,67.5,Wraps,-80,-80,-80,,,,,,,,,,,,,,F,SBD,
1,Katarína Zajková,Slovakia,61,79.1,Masters,82.5,Wraps,140,150,-160,,150,65,75,80,,80,160,172.5,180,,180,410,F,SBD,
1,Květuše Baranovičová,Slovakia,70,58.2,Masters,67.5,Wraps,40,45,,,45,30,-35,,,30,70,80,,,80,155,F,SBD,
G,Jakub Cseri,Slovakia,15,84,Guest,95,Wraps,165,-175,-175,,165,100,-102.5,102.5,,102.5,175,-185,185,,185,452.5,M,SBD,
G,Kristián Šlosár,Slovakia,15,90.2,Guest,95,Wraps,-130,130,150,,150,80,82.5,85,,85,160,170,180,,180,415,M,SBD,
G,Dominik Záslav,Slovakia,14,66.9,Guest,67.5,Wraps,120,130,-137.5,,130,80,90,-95,,90,155,175,185,,185,405,M,SBD,
G,Martin Balla,Slovakia,15,65.1,Guest,67.5,Wraps,100,115,125,,125,62.5,65,-70,,65,160,170,-180,,170,360,M,SBD,
G,Tomáš Trojčák,Slovakia,15,66.1,Guest,67.5,Wraps,100,110,120,,120,75,-77.5,,,75,130,140,145,,145,340,M,SBD,
G,Samuel Ďurkech,Slovakia,15,56.5,Guest,67.5,Wraps,110,120,-130,,120,70,-75,-75,,70,130,135,140,,140,330,M,SBD,
G,Patrik Soľár,Slovakia,15,56,Guest,67.5,Wraps,85,-95,-95,,85,-40,45,-50,,45,90,-95,-95,,90,220,M,SBD,
G,Róbert Šimko,Slovakia,13,60.9,Guest,67.5,Wraps,70,80,-90,,80,30,-37.5,,,30,80,90,102.5,,102.5,212.5,M,SBD,
DQ,Ján Christopher Kónya,Slovakia,13,67.1,Guest,67.5,Wraps,-105,115,125,,125,-80,-80,-80,,,,,,,,,M,SBD,
G,Tibor Berta,Slovakia,14,70.5,Guest,82.5,Wraps,102.5,112.5,122.5,,122.5,92.5,102.5,-112.5,,102.5,130,145,160,,160,385,M,SBD,
G,Flórián Valacsay,Slovakia,15,82.5,Guest,82.5,Wraps,100,110,,,110,60,-67.5,-67.5,,60,120,135,-142.5,,135,305,M,SBD,
G,Tobias Majstrák,Slovakia,14,70.8,Guest,82.5,Wraps,80,90,100,,100,50,,60,,60,80,90,100,,100,260,M,SBD,
1,Miro Marcinek,Slovakia,19,66.5,Teen,67.5,Wraps,145,-155,-155,,145,105,112.5,-115,,112.5,190,200,-212.5,,200,457.5,M,SBD,
2,Samuel Kubík,Slovakia,17,64.8,Teen,67.5,Wraps,-150,-150,150,,150,80,95,100,,100,-150,150,170,,170,420,M,SBD,
3,Dušan Vrabec,Slovakia,16,64.8,Teen,67.5,Wraps,125,135,145,,145,80,-90,90,,90,160,170,180,,180,415,M,SBD,
4,Juraj Knopp,Slovakia,17,67.4,Teen,67.5,Wraps,120,130,-140,,130,70,80,-90,,80,-120,130,145,,145,355,M,SBD,
5,Libor Bodjan,Slovakia,18,59.1,Teen,67.5,Wraps,120,-125,-125,,120,80,-85,85,,85,60,95,135,,135,340,M,SBD,
DQ,Mojmír Žilecký,Slovakia,18,66.4,Teen,67.5,Wraps,172.5,-177.5,177.5,,177.5,100,-107.5,107.5,,107.5,-200,-200,-200,,,,M,SBD,
DQ,Jozef Suchánek,Slovakia,16,66.2,Teen,67.5,Wraps,-120,130,-140,,130,-80,-90,-92.5,,,,,,,,,M,SBD,
DQ,Adam Mišík,Slovakia,17,65.8,Teen,67.5,Wraps,-150,-150,-150,,,,,,,,,,,,,,M,SBD,
1,Patrik Zajíček,Slovakia,19,81.2,Teen,82.5,Wraps,210,230,240,,240,130,140,147.5,,147.5,220,240,250,-263,250,637.5,M,SBD,
2,David Klukavý,Slovakia,19,81.3,Teen,82.5,Wraps,190,202.5,210,,210,100,110,120,,120,235,250,260.5,265,260.5,590.5,M,SBD,
3,Samuel Kalauz,Slovakia,19,82.3,Teen,82.5,Wraps,185,195,205,,205,-132.5,132.5,-140,,132.5,-235,245,-250,,245,582.5,M,SBD,
4,Adam Jusko,Slovakia,19,81.4,Teen,82.5,Wraps,180,190,200,,200,140,-145,-145,,140,240,-262.5,-262.5,,240,580,M,SBD,
5,Frederik Jendraššák,Slovakia,17,82.1,Teen,82.5,Wraps,190,207.5,-217.5,,207.5,120,130,-135,,130,200,220,-235,,220,557.5,M,SBD,
6,Miloš Škvarka,Slovakia,16,78.6,Teen,82.5,Wraps,175,185,-195,,185,105,,112.5,,112.5,220,230,242.5,,242.5,540,M,SBD,
7,Erik Borovička,Slovakia,19,75.4,Teen,82.5,Wraps,180,195,-205,,195,110,-120,120,,120,190,205,215,,215,530,M,SBD,
8,Samuel Petrík,Slovakia,18,79.7,Teen,82.5,Wraps,180,190,200,,200,90,-95,-95,,90,190,205,215,,215,505,M,SBD,
9,Roman Markov,Slovakia,18,80.4,Teen,82.5,Wraps,175,190,-200,,190,100,105,-110,,105,185,210,-220,,210,505,M,SBD,
10,Alexander Michálek,Slovakia,18,78.9,Teen,82.5,Wraps,145,155,162.5,,162.5,80,85,-90,,85,170,200,210,,210,457.5,M,SBD,
11,Tomáš Čaniga,Slovakia,16,77.8,Teen,82.5,Wraps,135,150,165,,165,80,87.5,-95,,87.5,155,180,192.5,,192.5,445,M,SBD,
12,Samuel Petrík St,Slovakia,18,72.5,Teen,82.5,Wraps,160,-170,170,,170,65,70,75,,75,160,170,-175,,170,415,M,SBD,
13,Maroš Kuzma,Slovakia,18,79.5,Teen,82.5,Wraps,135,-145,145,,145,-85,90,-100,,90,140,160,175,,175,410,M,SBD,
1,Štefan Bodina,Slovakia,19,93.2,Teen,95,Wraps,220,235,245,,245,145,155,-160,,155,210,230,240,,240,640,M,SBD,
2,Andrej Nika,Slovakia,19,85.4,Teen,95,Wraps,-220,220,-235,,220,130,137.5,-140,,137.5,260,280,-300.5,,280,637.5,M,SBD,
3,Andrej Puchoň,Slovakia,18,92,Teen,95,Wraps,200,-215,-220,,200,120,130,-135,,130,275,300,-310,,300,630,M,SBD,
4,Šimon Komanický,Slovakia,18,93,Teen,95,Wraps,200,220,-230,,220,130,137.5,-140,,137.5,235,-250,-250,,235,592.5,M,SBD,
5,Martin Szombath,Slovakia,17,90.6,Teen,95,Wraps,175,190,-200,,190,117.5,127.5,-137.5,,127.5,175,190,-200,,190,507.5,M,SBD,
6,Maximilián Belica,Slovakia,18,89.2,Teen,95,Wraps,145,155,160,,160,85,90,-92.5,,90,155,165,175,,175,425,M,SBD,
7,Viktor Orta,Slovakia,18,87.3,Teen,95,Wraps,130,-140,-140,,130,80,85,-90,,85,-180,190,-200,,190,405,M,SBD,
8,Alex Beer,Slovakia,16,93.9,Teen,95,Wraps,-140,140,150,,150,80,-90,90,,90,140,150,160,,160,400,M,SBD,
1,Stanislav Végfalvi,Slovakia,16,103.7,Teen,110,Wraps,240,260,280,,280,130,145,155,,155,240,265,275,,275,710,M,SBD,
2,Sebastián Kušnier,Slovakia,18,97.5,Teen,110,Wraps,217.5,232.5,242.5,,242.5,135,145,-150,,145,235,255,265,,265,652.5,M,SBD,
3,Leo Janiga,Slovakia,19,108.1,Teen,110,Wraps,200,215,225,,225,130,-135,-135,,130,240,260,272.5,,272.5,627.5,M,SBD,
4,Tomáš Tarkoš,Slovakia,18,100.2,Teen,110,Wraps,220,-225,-225,,220,110,117.5,-125,,117.5,220,225,232.5,,232.5,570,M,SBD,
5,Šimon Skrepek,Slovakia,17,106.6,Teen,110,Wraps,170,185,200,,200,105,110,-115,,110,220,235,-245,,235,545,M,SBD,
6,David Košč,Slovakia,16,102.1,Teen,110,Wraps,150,160,170,,170,115,120,-125,,120,200,210,220,,220,510,M,SBD,
7,Adam Chamko,Slovakia,17,101.9,Teen,110,Wraps,150,-160,160,,160,85,-95,-95,,85,190,205,-210,,205,450,M,SBD,
DQ,Timotej Kunštek,Slovakia,17,98.1,Teen,110,Wraps,-170,,,,,,,,,,,,,,,,M,SBD,
1,Samuel Schulz,Slovakia,19,116.9,Teen,125,Wraps,-230,245,265,,265,140,150,157.5,-166,157.5,255,265,275,-285.5,275,697.5,M,SBD,
1,Martin Macháč,Slovakia,23,67.4,Juniors,67.5,Wraps,-177.5,177.5,-182.5,,177.5,97.5,102.5,-107.5,,102.5,182.5,187.5,192.5,-195,192.5,472.5,M,SBD,
1,Dominik Fullajtár,Slovakia,23,80.6,Juniors,82.5,Wraps,220,235,250,,250,135,145,-150,,145,-240,-240,240,,240,635,M,SBD,
2,Daniel Kiss,Slovakia,21,80.1,Juniors,82.5,Wraps,190,210,-222.5,,210,130,137.5,140,,140,240,260,-275,,260,610,M,SBD,
3,Richard Rzepiel,Slovakia,20,77.9,Juniors,82.5,Wraps,170,182.5,190,,190,112.5,120,-125,,120,230,240,-250,,240,550,M,SBD,
4,Marek Fusko,Slovakia,23,81.2,Juniors,82.5,Wraps,160,170,177.5,,177.5,117.5,122.5,-127.5,,122.5,225,235,250,,250,550,M,SBD,
5,Miroslav Sobota,Slovakia,21,77,Juniors,82.5,Wraps,180,190,200,,200,117.5,125,130,,130,190,202.5,210,,210,540,M,SBD,
6,Marek Rosenberger,Slovakia,21,81,Juniors,82.5,Wraps,157.5,170,180,,180,135,-140,-140,,135,185,200,205,,205,520,M,SBD,
7,Adam Partl,Slovakia,20,79.2,Juniors,82.5,Wraps,170,200,-220,,200,105,-117.5,-117.5,,105,170,195,207.5,,207.5,512.5,M,SBD,
8,Adrián Lašák,Slovakia,21,75.6,Juniors,82.5,Wraps,165,175,190,,190,92.5,105,-112.5,,105,155,175,190,,190,485,M,SBD,
9,Peter Podhorec,Slovakia,20,80,Juniors,82.5,Wraps,-170,-170,170,,170,100,110,-115,,110,170,190,-200,,190,470,M,SBD,
10,Marián Kristián Hrozen,Slovakia,20,71.8,Juniors,82.5,Wraps,140,-160,-160,,140,80,-90,-90,,80,-170,-170,170,,170,390,M,SBD,
DQ,Marek Červenka,Slovakia,22,81.6,Juniors,82.5,Wraps,-190,-190,-200,,,,,,,,,,,,,,M,SBD,
1,Erik Kondrát,Slovakia,23,91.4,Juniors,95,Wraps,260,270,-275,,270,160,170,-175,,170,270,280,285,,285,725,M,SBD,
2,Martin Hepka,Slovakia,22,93.4,Juniors,95,Wraps,265,-272.5,-272.5,,265,165,175,185,,185,250,260,-270,,260,710,M,SBD,
3,Dárius Bučo,Slovakia,21,91.3,Juniors,95,Wraps,230,-250,-250,,230,140,155,162.5,,162.5,220,240,250,,250,642.5,M,SBD,
4,Peter Franc,Slovakia,23,91.4,Juniors,95,Wraps,200,210,220,,220,115,120,125,,125,260,270,-281,,270,615,M,SBD,
5,Daniel Babic,Slovakia,23,91.6,Juniors,95,Wraps,190,200,210,,210,135,145,150,,150,235,245,-250,,245,605,M,SBD,
6,Milan Ilavský,Slovakia,22,83.2,Juniors,95,Wraps,200,210,215,,215,110,120,125,,125,230,-240,240,,240,580,M,SBD,
7,Lukáš Džavoronok,Slovakia,23,91.3,Juniors,95,Wraps,210,230,-240,,230,120,-135,-135,,120,200,230,-240,,230,580,M,SBD,
8,Matúš Filip,Slovakia,22,92.3,Juniors,95,Wraps,200,-210,-210,,200,145,-150,,,145,220,-230,-230,,220,565,M,SBD,
9,Filip Komanický,Slovakia,22,94,Juniors,95,Wraps,185,195,200,,200,127.5,132.5,-137.5,,132.5,190,215,-225,,215,547.5,M,SBD,
10,Adam Gyurcsi,Slovakia,20,92.8,Juniors,95,Wraps,170,182.5,192.5,,192.5,130,-140,-140,,130,180,200,207.5,,207.5,530,M,SBD,
11,Adam Tasáry,Slovakia,21,92.4,Juniors,95,Wraps,180,190,-200,,190,100,110,-115,,110,200,210,217.5,,217.5,517.5,M,SBD,
12,Šimon Kupec,Slovakia,22,93.7,Juniors,95,Wraps,165,180,190,,190,125,-132.5,132.5,,132.5,180,195,-205,,195,517.5,M,SBD,
DQ,Oliver Lukáč,Slovakia,21,92.1,Juniors,95,Wraps,-190,-190,-190,,,,,,,,,,,,,,M,SBD,
1,Richard Leng,Slovakia,23,105.7,Juniors,110,Wraps,235,250,265,,265,150,160,167.5,,167.5,285,306,315,320,315,747.5,M,SBD,
2,Adrián Bartoš,Slovakia,23,108.1,Juniors,110,Wraps,-250,250,260,,260,170,180,-185,,180,260,275,285,,285,725,M,SBD,
3,Samuel Lokšík,Slovakia,20,102.1,Juniors,110,Wraps,210,230,-250,,230,140,-155,160,,160,240,270,-282.5,,270,660,M,SBD,
4,Daniel Kmetík,Slovakia,20,105.5,Juniors,110,Wraps,185,200,-210,,200,120,-127.5,127.5,,127.5,220,230,-232.5,,230,557.5,M,SBD,
DQ,Nicolas Nitranský,Slovakia,21,108.4,Juniors,110,Wraps,-185,195,-210,,195,-125,-135,-135,,,,,,,,,M,SBD,
1,Boris Štulajter,Slovakia,21,120.7,Juniors,125,Wraps,280,300,-310,,300,145,155,,,155,280,300,-310,,300,755,M,SBD,
1,Tomáš Komjaty,Slovakia,21,154.8,Juniors,125+,Wraps,300,320,-335,,320,210,220,230,237,230,300,320,-330,,320,870,M,SBD,
2,Patrik Uváček,Slovakia,21,160.3,Juniors,125+,Wraps,320,335,,,335,205,220,227.5,,227.5,-300,300,-310,,300,862.5,M,SBD,
1,Florián Tichý,Slovakia,36,67.4,Open,67.5,Wraps,190,200,-205,,200,140,-145,-145,,140,210,222.5,-230,,222.5,562.5,M,SBD,
2,Viktor Šafránek,Slovakia,28,62.7,Open,67.5,Wraps,120,-140,-140,,120,90,-100,-100,,90,180,190,200,,200,410,M,SBD,
1,Marek Kéri,Slovakia,30,81.8,Open,82.5,Wraps,225,235,-245,,235,130,135,-140,,135,245,255,-265,,255,625,M,SBD,
2,Kristián Šuchter,Slovakia,25,79.8,Open,82.5,Wraps,180,195,205,,205,115,125,130,,130,225,240,250,,250,585,M,SBD,
3,Radovan Matesz,Slovakia,26,82.3,Open,82.5,Wraps,200,205,-210,,205,120,125,130,,130,240,250,-255,,250,585,M,SBD,
4,Ivan Dávid,Slovakia,26,82.1,Open,82.5,Wraps,195,205,210,,210,125,127.5,-130,,127.5,210,220,-227.5,,220,557.5,M,SBD,
5,Michal Móry,Slovakia,44,78.3,Open,82.5,Wraps,180,192.5,205,,205,115,122.5,-127.5,,122.5,207.5,222.5,-232.5,,222.5,550,M,SBD,
6,Lukáš Lörinc,Slovakia,24,81.4,Open,82.5,Wraps,185,200,-207.5,,200,-130,130,135,,135,190,205,-220,,205,540,M,SBD,
7,Martin Schneider,Slovakia,24,74.5,Open,82.5,Wraps,155,165,172.5,,172.5,115,120,-125,,120,207.5,217.5,227.5,,227.5,520,M,SBD,
8,Martin Szabo,Slovakia,24,70.7,Open,82.5,Wraps,150,155,-162.5,,155,95,-97.5,,,95,175,185,-200,,185,435,M,SBD,
1,Ján Špais,Slovakia,27,94.5,Open,95,Raw,245,265,280,,280,220,235,242.5,,242.5,280,-310,-315,,280,802.5,M,SBD,
2,Roman Kövári,Slovakia,24,93.5,Open,95,Wraps,200,220,240,,240,135,140,150,,150,290,310,-330,,310,700,M,SBD,
3,Michal Sorát,Slovakia,22,94,Open,95,Wraps,205,212.5,217.5,,217.5,127.5,132.5,-137.5,,132.5,300,310,317.5,-325,317.5,667.5,M,SBD,
4,Filip Klement,Slovakia,28,93.7,Open,95,Wraps,195,207.5,215,,215,115,122.5,127.5,,127.5,250,265,-275,,265,607.5,M,SBD,
5,Ivan Ravza,Slovakia,23,90.6,Open,95,Wraps,190,205,220,,220,120,127.5,135,,135,190,205,215,,215,570,M,SBD,
6,Kevin Fazekaš,Slovakia,24,91.1,Open,95,Wraps,192.5,202.5,215,,215,122.5,-130,-130,,122.5,200,212.5,225,,225,562.5,M,SBD,
7,Peter Sárosi,Slovakia,24,94.4,Open,95,Wraps,180,190,-200,,190,125,-132.5,-132.5,,125,225,235,-242.5,,235,550,M,SBD,
8,Emil Marčák,Slovakia,24,88.6,Open,95,Wraps,180,200,-220,,200,130,137.5,145,,145,190,200,-210,,200,545,M,SBD,
1,René Černý,Slovakia,26,100.9,Open,110,Wraps,260,280,300,,300,160,-170,,,160,280,300,-310,,300,760,M,SBD,
2,Marek Molnár,Slovakia,29,99,Open,110,Wraps,250,270,-280,,270,160,170,-180,,170,270,285,305,,305,745,M,SBD,
3,Jakub Vedej,Slovakia,30,101.2,Open,110,Wraps,220,240,250,,250,140,150,-160,,150,240,255,265,,265,665,M,SBD,
4,Dominik Štefečka,Slovakia,28,107.3,Open,110,Wraps,200,220,-240,,220,130,140,152.5,,152.5,235,250,270,,270,642.5,M,SBD,
1,Lukáš Krupaš,Slovakia,30,124.8,Open,125,Wraps,260,275,-280,,275,180,200,-215,,200,-200,200,250,,250,725,M,SBD,
2,Andrej Lukačovič,Slovakia,28,121.9,Open,125,Wraps,225,250,270,,270,140,150,162.5,,162.5,255,270,290,320.5,290,722.5,M,SBD,
1,Marek Lipták,Slovakia,44,131,Open,125+,Wraps,300,320,-345.5,,320,200,210,-220,,210,300,320,,,320,850,M,SBD,
2,Ladislav Hrabovský,Slovakia,33,145.1,Open,125+,Wraps,-285,300,315,,315,-185,185,195,,195,285,300,-310,,300,810,M,SBD,
3,Ján Kažimír,Slovakia,24,132.2,Open,125+,Wraps,280,-300,300,,300,190,200,-205,,200,290,-300,-305,,290,790,M,SBD,
4,Peter Sakala,Slovakia,25,132.7,Open,125+,Wraps,300,320,-330,,320,170,-180,-180,,170,250,265,275,,275,765,M,SBD,
1,Marián Csadi,Slovakia,48,94.8,Masters 40-59,95,Wraps,230,-240,240,,240,130,140,150,,150,230,250,-260,,250,640,M,SBD,
2,Peter Vateha,Slovakia,41,92.2,Masters 40-59,95,Wraps,200,-215,-215,,200,120,130,135,,135,170,185,200,,200,535,M,SBD,
3,Robert Šolc,Slovakia,43,91.3,Masters 40-59,95,Wraps,-155,155,-165,,155,95,100,-110,,100,-160,160,185,,185,440,M,SBD,
1,Antal Tábor,Hungary,43,103.2,Masters 40-59,110,Wraps,230,250,,,250,160,,,,160,230,,,,230,640,M,SBD,
2,Pavel Kolibár,Slovakia,48,107.9,Masters 40-59,110,Wraps,170,180,190,,190,135,140,145,,145,200,210,220,,220,555,M,SBD,
1,Ľubomír Majstrák,Slovakia,49,115.4,Masters 40-59,125,Wraps,120,135,150,,150,50,60,,,60,120,135,150,,150,360,M,SBD,
1,Sándor Vörös,Slovakia,47,138,Masters 40-59,125+,Wraps,200,240,250,,250,190,200,,,200,200,220,,,220,670,M,SBD,
1,Peter Lehocký,Slovakia,51,88.7,Masters 40-59,95,Wraps,215,235,247.5,,247.5,150,-165,165,,165,240,260,275,,275,687.5,M,SBD,
2,Milan Páleník,Slovakia,52,91.9,Masters 40-59,95,Wraps,120,-130,130,,130,60,70,-80,,70,160,170,180,,180,380,M,SBD,
1,Dominik Grajciar,Slovakia,50,105.9,Masters 40-59,110,Wraps,-90,90,100,,100,90,-100,-100,,90,110,120,130,,130,320,M,SBD,
1,László Jantek,Hungary,57,81.1,Masters 40-59,82.5,Wraps,180,200,215,,215,140,145,-147.5,,145,180,200,-210,,200,560,M,SBD,
1,Tibor Zvada,Slovakia,65,86.4,Masters 60+,95,Wraps,100,-112.5,112.5,,112.5,70,80,82.5,,82.5,140,155,162.5,,162.5,357.5,M,SBD,
1,Jaroslav Šolc,Slovakia,66,109.1,Masters 60+,110,Wraps,190,,,,190,162.5,167.5,-172.5,,167.5,200,210,,,210,567.5,M,SBD,
2,Arpád Sárkózi,Slovakia,61,108.6,Masters 60+,110,Wraps,180,-200,200,,200,-140,140,-145,,140,160,180,-200,,180,520,M,SBD,
1,František Makranský,Slovakia,61,118.7,Masters 60+,125,Wraps,220,240,,,240,140,150,155,,155,230,240,260,,260,655,M,SBD,
1,Jozef Bartek,Slovakia,78,78.2,Masters 60+,82.5,Wraps,60,70,-77.5,,70,-55,55,-60,,55,80,91,93,,93,218,M,SBD,
1,Ján Gdovin,Slovakia,21,91.7,Juniors,95,Multi-ply,175,190,-200,,190,120,130,-135,,130,220,-230,-230,,220,540,M,SBD,
1,Ivan Egyed,Slovakia,28,91.6,Open,95,Multi-ply,280,300,320,-340.5,320,170,190,-205,,190,260,280,-305,,280,790,M,SBD,
2,Tomáš Múdrý,Slovakia,29,87.6,Open,95,Multi-ply,260,280,290,,290,-160,160,-170,,160,250,270,-280,,270,720,M,SBD,
1,René Cicák,Slovakia,31,108.8,Open,110,Multi-ply,180,190,200,,200,140,-147.5,-147.5,,140,210,225,235,,235,575,M,SBD,
1,Adam Sobek,Slovakia,28,117.3,Open,125,Multi-ply,270,300,310,,310,200,215,220,,220,270,300,,,300,830,M,SBD,
1,Daniel Tatarka,Slovakia,39,78.5,Open,82.5,Multi-ply,-280,280,-300,,280,160,170,175,,175,240,260,-274,,260,715,M,SBD,
2,Ľubomír Samseli,Slovakia,36,80.5,Open,82.5,Multi-ply,180,190,200,,200,150,160,170,,170,230,240,-255,,240,610,M,SBD,
1,Marcel Vasilenko,Slovakia,43,93.3,Masters 40-49,95,Multi-ply,200,-225,225,,225,175,-185,-185,,175,220,240,250,260,250,650,M,SBD,
1,Ivan Levický,Slovakia,53,104.2,Masters 50-59,110,Multi-ply,210,225,-240,,225,140,150,-160.5,,150,280,-300,300,,300,675,M,SBD,
1,Michal Červinka,Slovakia,62,92.5,Masters 60-69,95,Multi-ply,190,205,-215,,205,92.5,97.5,-102.5,,97.5,190,200,-210,,200,502.5,M,SBD,
1,Petra Vaščáková,Slovakia,16,80.1,Teen,82.5,Raw,,,,,,65,67.5,70,,70,,,,,,70,F,B,
2,Lívia Liptáková,Slovakia,18,77.2,Teen,82.5,Raw,,,,,,45,47.5,50,,50,,,,,,50,F,B,
1,Andrea Gregorová,Slovakia,23,73.3,Juniors,82.5,Raw,,,,,,95,102.5,-107.5,,102.5,,,,,,102.5,F,B,
2,Marianna Derdziaková,Slovakia,21,77.1,Juniors,82.5,Raw,,,,,,52.5,-57.5,-57.5,,52.5,,,,,,52.5,F,B,
1,Radoslava Tóth,Slovakia,34,50.7,Open,52,Raw,,,,,,45,47.5,50,,50,,,,,,50,F,B,
1,Martina Vargová,Slovakia,34,58.3,Open,67.5,Raw,,,,,,67.5,70,72.5,,72.5,,,,,,72.5,F,B,
1,Marcela Támarová,Slovakia,37,80.9,Open,82.5,Raw,,,,,,85,92.5,-102.5,,92.5,,,,,,92.5,F,B,
1,Sandra Berger,Slovakia,44,63.9,Masters 40-49,67.5,Raw,,,,,,57.5,62.5,65,67,65,,,,,,65,F,B,
1,Tatiana Magulová,Slovakia,41,76.7,Masters 40-49,82.5,Raw,,,,,,90,95,97.5,-101,97.5,,,,,,97.5,F,B,
2,Andrea Chromčová,Slovakia,46,77.8,Masters 40-49,82.5,Raw,,,,,,55,60,-65,,60,,,,,,60,F,B,
G,Róbert Bučko,Slovakia,15,60.9,Guest,67.5,Raw,,,,,,75,85,-90,,85,,,,,,85,M,B,
1,Pavol Nedoroščík,Slovakia,18,90.8,Teen,95,Raw,,,,,,100,110,115,,115,,,,,,115,M,B,
2,Samuel Hippík,Slovakia,18,83.9,Teen,95,Raw,,,,,,90,100,-110,,100,,,,,,100,M,B,
DQ,Michal Hucik,Slovakia,17,85.1,Teen,95,Raw,,,,,,-145,-145,-145,,,,,,,,,M,B,
1,Miroslav Berki,Slovakia,16,58,Teen,67.5,Raw,,,,,,90,100,110,,110,,,,,,110,M,B,
2,Libor Bodjan,Slovakia,18,59.6,Teen,67.5,Raw,,,,,,80,85,-90,,85,,,,,,85,M,B,
3,Matúš Rumančík,Slovakia,16,67.3,Teen,67.5,Raw,,,,,,75,-80,80,,80,,,,,,80,M,B,
1,Dávid Bučok,Slovakia,17,79.9,Teen,82.5,Raw,,,,,,110,120,125,,125,,,,,,125,M,B,
2,Nikolas Csík,Slovakia,18,73,Teen,82.5,Raw,,,,,,90,100,107.5,,107.5,,,,,,107.5,M,B,
3,Dávid Repa,Slovakia,19,74.9,Teen,82.5,Raw,,,,,,95,100,-105,,100,,,,,,100,M,B,
4,Patrik Záslav,Slovakia,16,77.7,Teen,82.5,Raw,,,,,,90,100,-107.5,,100,,,,,,100,M,B,
1,Marcel Macura,Slovakia,23,78,Juniors,82.5,Raw,,,,,,140,145,-152.5,,145,,,,,,145,M,B,
2,Matej Ševčík,Slovakia,21,80.3,Juniors,82.5,Raw,,,,,,132.5,142.5,-147.5,,142.5,,,,,,142.5,M,B,
3,Anton Friedl,Slovakia,22,72.2,Juniors,82.5,Raw,,,,,,110,115,-120,,115,,,,,,115,M,B,
4,Braňo Ľupták,Slovakia,20,80.4,Juniors,82.5,Raw,,,,,,100,115,-122.5,,115,,,,,,115,M,B,
5,Martin Toman,Slovakia,20,82.3,Juniors,82.5,Raw,,,,,,100,105,-110,,105,,,,,,105,M,B,
1,Ivan Hajdoni,Slovakia,20,92.4,Juniors,95,Raw,,,,,,175,190,-195,,190,,,,,,190,M,B,
2,Pavol Pančišin,Slovakia,21,94.1,Juniors,95,Raw,,,,,,130,-140,-140,,130,,,,,,130,M,B,
3,Robert Antol,Slovakia,21,94.6,Juniors,95,Raw,,,,,,112.5,117.5,-122.5,,117.5,,,,,,117.5,M,B,
1,Sebastian Miškovič,Slovakia,21,108.9,Juniors,110,Raw,,,,,,160,175,182.5,,182.5,,,,,,182.5,M,B,
2,Adrián Bartoš,Slovakia,23,109.7,Juniors,110,Raw,,,,,,170,175,,,175,,,,,,175,M,B,
1,Ladislav Gálik,Slovakia,22,152.2,Juniors,125+,Raw,,,,,,250,-255,-255,,250,,,,,,250,M,B,
2,Michal Lapihuska,Slovakia,20,135.1,Juniors,125+,Raw,,,,,,150,165,-170,,165,,,,,,165,M,B,
1,Richard Holub,Slovakia,31,65.8,Open,67.5,Raw,,,,,,-145,145,-150,,145,,,,,,145,M,B,
2,Erik Kondákor,Slovakia,35,66.9,Open,67.5,Raw,,,,,,80,,,,80,,,,,,80,M,B,
1,Mário Zastko,Slovakia,27,77,Open,82.5,Raw,,,,,,150,157.5,162.5,,162.5,,,,,,162.5,M,B,
2,Michal Kozma,Slovakia,31,78.3,Open,82.5,Raw,,,,,,150,155,-160,,155,,,,,,155,M,B,
3,Slavomír Tomko,Slovakia,35,81,Open,82.5,Raw,,,,,,145,-152.5,155,,155,,,,,,155,M,B,
4,Maciej Markowski,Slovakia,38,82.5,Open,82.5,Raw,,,,,,140,-150,-150,,140,,,,,,140,M,B,
5,Marián Lipták,Slovakia,28,81.9,Open,82.5,Raw,,,,,,120,127.5,-130,,127.5,,,,,,127.5,M,B,
6,Jakub Dorčák,Slovakia,26,79.9,Open,82.5,Raw,,,,,,115,120,-125,,120,,,,,,120,M,B,
1,Tomáš Kríž,Slovakia,30,94.1,Open,95,Raw,,,,,,165,175,-185,,175,,,,,,175,M,B,
2,Hadházi Balázs,Hungary,33,89.7,Open,95,Raw,,,,,,-170,170,-175,,170,,,,,,170,M,B,
3,Zdenko Bystrianský,Slovakia,33,89,Open,95,Raw,,,,,,160,165,-170,,165,,,,,,165,M,B,
4,Šimon Michalov,Slovakia,31,90.9,Open,95,Raw,,,,,,130,-135,-135,,130,,,,,,130,M,B,
5,Ján Hruška,Slovakia,34,90.6,Open,95,Raw,,,,,,110,-115,,,110,,,,,,110,M,B,
1,Július Mertvík,Slovakia,26,98.7,Open,110,Raw,,,,,,200,-210,,,200,,,,,,200,M,B,
2,Juraj Korman,Slovakia,27,108.7,Open,110,Raw,,,,,,190,200,-202.5,,200,,,,,,200,M,B,
3,Michal Hrivňák,Slovakia,29,109,Open,110,Raw,,,,,,182.5,190,192.5,,192.5,,,,,,192.5,M,B,
4,Šimon Elischer,Slovakia,26,102.5,Open,110,Raw,,,,,,190,-200,-200,,190,,,,,,190,M,B,
5,Lukáš Kandráč,Slovakia,25,102.8,Open,110,Raw,,,,,,180,-185,-185,,180,,,,,,180,M,B,
6,Peter Klukavý,Slovakia,29,104.8,Open,110,Raw,,,,,,135,142.5,-147.5,,142.5,,,,,,142.5,M,B,
1,Stanislav Močkor,Slovakia,26,114.1,Open,125,Raw,,,,,,220,230,-240,,230,,,,,,230,M,B,
2,Lukáš Krupaš,Slovakia,30,124.8,Open,125,Raw,,,,,,180,200,-212.5,,200,,,,,,200,M,B,
3,Manuel Edlinger,Austria,38,114.1,Open,125,Raw,,,,,,150,160,165,,165,,,,,,165,M,B,
4,Leevi Leppäjärvi,Finland,29,115.8,Open,125,Raw,,,,,,-150,160,165,,165,,,,,,165,M,B,
1,Imrich Vörös,Slovakia,39,167.1,Open,125+,Raw,,,,,,175,185,212.5,,212.5,,,,,,212.5,M,B,
2,Mohamed Anwar,Hungary,37,129.5,Open,125+,Raw,,,,,,190,202.5,210,,210,,,,,,210,M,B,
3,Denis Borcha,Slovakia,23,145,Open,125+,Raw,,,,,,200,210,-220,,210,,,,,,210,M,B,
4,Robert Kiss,Slovakia,35,130,Open,125+,Raw,,,,,,140,150,-160,,150,,,,,,150,M,B,
1,Jaroslav Pacek,Slovakia,43,81.9,Masters 40-59,82.5,Raw,,,,,,135,137.5,-140,,137.5,,,,,,137.5,M,B,
2,Pavol Glovacký,Slovakia,45,79.8,Masters 40-59,82.5,Raw,,,,,,112.5,120,127.5,,127.5,,,,,,127.5,M,B,
3,Michal Móry,Slovakia,44,78.9,Masters 40-59,82.5,Raw,,,,,,110,120,125,,125,,,,,,125,M,B,
1,Jozef Kišš,Slovakia,47,94.1,Masters 40-59,95,Raw,,,,,,180,190,192.5,,192.5,,,,,,192.5,M,B,
2,Štefan Sokoly,Slovakia,47,94.4,Masters 40-59,95,Raw,,,,,,170,177.5,182.5,,182.5,,,,,,182.5,M,B,
1,Andrej Smutný,Slovakia,45,110,Masters 40-59,110,Raw,,,,,,180,185,190,,190,,,,,,190,M,B,
2,Vladimír Karchňák,Slovakia,46,108.3,Masters 40-59,110,Raw,,,,,,175,180,185,,185,,,,,,185,M,B,
3,Ladislav Mikovčík,Slovakia,42,101,Masters 40-59,110,Raw,,,,,,165,-172.5,-172.5,,165,,,,,,165,M,B,
4,Marián Milý,Slovakia,49,103.5,Masters 40-59,110,Raw,,,,,,160,-165,,,160,,,,,,160,M,B,
1,András Sebők,Hungary,46,115.5,Masters 40-59,125,Raw,,,,,,200,210,215,,215,,,,,,215,M,B,
2,Jozef Harandza,Slovakia,40,118.5,Masters 40-59,125,Raw,,,,,,190,200,-205.5,,200,,,,,,200,M,B,
3,Michal Kráľ,Slovakia,41,119.4,Masters 40-59,125,Raw,,,,,,175,180,-185,,180,,,,,,180,M,B,
4,Martin Mikula,Slovakia,41,120,Masters 40-59,125,Raw,,,,,,130,140,-142.5,,140,,,,,,140,M,B,
1,Marek Lipták,Slovakia,44,131,Masters 40-59,125+,Raw,,,,,,190,200,,,200,,,,,,200,M,B,
2,Marcin Czaja,Poland,47,141.2,Masters 40-59,125+,Raw,,,,,,160,167.5,172.5,,172.5,,,,,,172.5,M,B,
3,Jozef Minár,Slovakia,46,128.3,Masters 40-59,125+,Raw,,,,,,160,167.5,-172.5,,167.5,,,,,,167.5,M,B,
4,Michal Čorba,Slovakia,43,126.1,Masters 40-59,125+,Raw,,,,,,160,-165,165,,165,,,,,,165,M,B,
1,Vincent Karička,Slovakia,55,76.8,Masters 40-59,82.5,Raw,,,,,,122.5,127.5,130,132.5,130,,,,,,130,M,B,
2,István Bara,Hungary,54,74,Masters 40-59,82.5,Raw,,,,,,115,120,-122.5,,120,,,,,,120,M,B,
3,Róbert Papcún,Slovakia,57,76.9,Masters 40-59,82.5,Raw,,,,,,115,-120,-120,,115,,,,,,115,M,B,
1,František Sajko,Slovakia,51,92.4,Masters 40-59,95,Raw,,,,,,152.5,162.5,-167.5,,162.5,,,,,,162.5,M,B,
2,Tam Nguyen,Slovakia,52,89.5,Masters 40-59,95,Raw,,,,,,130,,,,130,,,,,,130,M,B,
1,Milan Pado,Slovakia,50,107.5,Masters 40-59,110,Raw,,,,,,160,172.5,180,,180,,,,,,180,M,B,
2,Tibor Pukáč,Slovakia,52,101,Masters 40-59,110,Raw,,,,,,170,175,-180,,175,,,,,,175,M,B,
3,Stanislav Jakubec,Slovakia,56,106.3,Masters 40-59,110,Raw,,,,,,150,157.5,-162.5,,157.5,,,,,,157.5,M,B,
1,Erik Susztay,Slovakia,50,123.7,Masters 40-59,125,Raw,,,,,,190,200,205,,205,,,,,,205,M,B,
2,Ján Orosz,Slovakia,59,120.6,Masters 40-59,125,Raw,,,,,,175,190,,,190,,,,,,190,M,B,
3,Marián Hudec,Slovakia,52,110.5,Masters 40-59,125,Raw,,,,,,125,-130,,,125,,,,,,125,M,B,
1,Karol Kornel Repiský,Slovakia,58,125.1,Masters 40-59,125+,Raw,,,,,,100,110,120,,120,,,,,,120,M,B,
1,Jaroslav Šolc,Slovakia,66,109.8,Masters 60+,110,Raw,,,,,,162.5,167.5,-170,,167.5,,,,,,167.5,M,B,
2,Július Vrbiniak,Slovakia,66,106.5,Masters 60+,110,Raw,,,,,,145,150,152.5,,152.5,,,,,,152.5,M,B,
3,Jozef Belica,Slovakia,66,107,Masters 60+,110,Raw,,,,,,130,135,-140,,135,,,,,,135,M,B,
1,Gábor Zsolt Teleki,Hungary,69,81.8,Masters 60+,82.5,Raw,,,,,,100,105,-110,,105,,,,,,105,M,B,
1,Ján Slovík,Slovakia,72,109.9,Masters 60+,110,Raw,,,,,,60,65,-70,,65,,,,,,65,M,B,
1,Stanislav Jurčišin,Slovakia,76,114.9,Masters 60+,125,Raw,,,,,,80,90,95,,95,,,,,,95,M,B,
1,Ondrej Hudák,Slovakia,48,118.1,Open,125,Unlimited,,,,,,330,340,-350,,340,,,,,,340,M,B,
2,Jozef Harandza,Slovakia,40,118.5,Open,125,Unlimited,,,,,,320,340,-350,,340,,,,,,340,M,B,
3,Erik Valent,Slovakia,37,82.7,Open,95,Unlimited,,,,,,220,260,267.5,,267.5,,,,,,267.5,M,B,
4,Matej Krišica,Slovakia,36,120.1,Open,125,Unlimited,,,,,,300,-315,-315,,300,,,,,,300,M,B,
5,Peter Funtík,Slovakia,43,109.9,Open,110,Unlimited,,,,,,180,,,,180,,,,,,180,M,B,
DQ,Imrich Vörös,Slovakia,39,167.1,Open,125+,Unlimited,,,,,,-220,-280,-350,,,,,,,,,M,B,
1,Oliver Krajčovič,Slovakia,20,111,Juniors,125,Multi-ply,,,,,,170,-180,-182.5,,170,,,,,,170,M,B,
1,Milan Vojačik,Slovakia,22,66.4,Juniors,67.5,Multi-ply,,,,,,105,120,125,,125,,,,,,125,M,B,
1,Erik Valent,Slovakia,37,82.7,Open,95,Multi-ply,,,,,,200,220,-230,,220,,,,,,220,M,B,
DQ,Dávid Bendík,Slovakia,31,110,Open,110,Multi-ply,,,,,,-292.5,-305,-305,,,,,,,,,M,B,
1,Péter Pintér,Slovakia,38,121,Open,125,Multi-ply,,,,,,275,282.5,-290,,282.5,,,,,,282.5,M,B,
2,Matej Krišica,Slovakia,36,120.1,Open,125,Multi-ply,,,,,,250,262.5,-272.5,,262.5,,,,,,262.5,M,B,
3,Martin Krajčí,Slovakia,35,117.9,Open,125,Multi-ply,,,,,,250,260,-270,,260,,,,,,260,M,B,
DQ,Marek Hmelár,Slovakia,31,126.4,Open,125+,Multi-ply,,,,,,-200,-200,-200,,,,,,,,,M,B,
1,Peter Funtík,Slovakia,43,109.9,Masters 40-49,110,Multi-ply,,,,,,195,200,-205,,200,,,,,,200,M,B,
2,Jozef Völgyák,Slovakia,40,105.4,Masters 40-49,110,Multi-ply,,,,,,-170,170,,,170,,,,,,170,M,B,
1,Ján Šiska,Slovakia,42,119.2,Masters 40-49,125,Multi-ply,,,,,,180,,,,180,,,,,,180,M,B,
1,Anton Frič,Slovakia,50,82.8,Masters 50-59,95,Multi-ply,,,,,,170,180,190,-200.5,190,,,,,,190,M,B,
DQ,Rudolf Siska,Slovakia,51,91.5,Masters 50-59,95,Multi-ply,,,,,,-190,-190,-190,,,,,,,,,M,B,
G,Simona Vasilenková,Slovakia,15,56.7,Guest,60,Raw,,,,,,,,,,,85,100,105,,105,105,F,D,
G,Liana Gondová,Slovakia,13,62,Guest,67.5,Raw,,,,,,,,,,,70,80,90,,90,90,F,D,
1,Zoe Kolarčíková,Slovakia,18,50.5,Teen,52,Raw,,,,,,,,,,,85,90,95,,95,95,F,D,
1,Denisa Ignáczová,Slovakia,19,57.5,Teen,60,Raw,,,,,,,,,,,100,105,110,,110,110,F,D,
2,Marianna Švondrková,Slovakia,16,54.8,Teen,60,Raw,,,,,,,,,,,82.5,-90,90,,90,90,F,D,
1,Ajlin Racenbergerová,Slovakia,18,65.2,Teen,67.5,Raw,,,,,,,,,,,120,130,140,,140,140,F,D,
2,Adela Sisková,Slovakia,16,66.5,Teen,67.5,Raw,,,,,,,,,,,90,100,105,,105,105,F,D,
3,Simona Hrabovská,Slovakia,18,66.2,Teen,67.5,Raw,,,,,,,,,,,60,65,75,,75,75,F,D,
1,Petra Vaščáková,Slovakia,16,80.1,Teen,82.5,Raw,,,,,,,,,,,140,155,165,,165,165,F,D,
1,Alexandra Guzejová,Slovakia,23,52.4,Juniors,60,Raw,,,,,,,,,,,115,125,135,,135,135,F,D,
1,Sarah Saloňová,Slovakia,20,65.1,Juniors,67.5,Raw,,,,,,,,,,,120,135,145,,145,145,F,D,
1,Radoslava Tóth,Slovakia,34,50.7,Open,52,Raw,,,,,,,,,,,105,112.5,115,,115,115,F,D,
1,Hajdu Anikó,Hungary,36,66.7,Open,67.5,Raw,,,,,,,,,,,152.5,162.5,167.5,,167.5,167.5,F,D,
2,Magdaléna Kačurová,Slovakia,30,65,Open,67.5,Raw,,,,,,,,,,,105,115,120,,120,120,F,D,
1,Marcela Támarová,Slovakia,37,80.9,Open,82.5,Raw,,,,,,,,,,,150,165,172.5,,172.5,172.5,F,D,
1,Andrea Chromčová,Slovakia,46,77.8,Masters 40-49,82.5,Raw,,,,,,,,,,,110,121,130,135,130,130,F,D,
2,Klaudia Tanczos,Slovakia,49,74.8,Masters 40-49,82.5,Raw,,,,,,,,,,,102.5,110,112.5,,112.5,112.5,F,D,
1,Božena Imreová,Slovakia,70,84.9,Masters 70-74,82.5+,Raw,,,,,,,,,,,50,55,,,55,55,F,D,
G,Martin Balla,Slovakia,15,64.7,Guest,67.5,Raw,,,,,,,,,,,160,170,175,,175,175,M,D,
G,Róbert Šimko,Slovakia,13,59.5,Guest,67.5,Raw,,,,,,,,,,,95,-105,105,,105,105,M,D,
G,Matej Planický,Slovakia,15,76.7,Guest,82.5,Raw,,,,,,,,,,,150,160,170,,170,170,M,D,
G,Flórián Valacsay,Slovakia,15,81.9,Guest,82.5,Raw,,,,,,,,,,,130,140,145,,145,145,M,D,
1,Samuel Košťál,Slovakia,18,93,Teen,95,Raw,,,,,,,,,,,210,220,227.5,,227.5,227.5,M,D,
2,Matúš Užík,Slovakia,19,90.6,Teen,95,Raw,,,,,,,,,,,200,210,220,,220,220,M,D,
3,Pavol Nedoroščík,Slovakia,18,90.8,Teen,95,Raw,,,,,,,,,,,-190,190,200,,200,200,M,D,
4,Viktor Orta,Slovakia,18,87.1,Teen,95,Raw,,,,,,,,,,,160,180,200,,200,200,M,D,
1,Timotej Kunštek,Slovakia,17,99,Teen,110,Raw,,,,,,,,,,,190,200,210,,210,210,M,D,
1,Adam Mišík,Slovakia,17,66.7,Teen,67.5,Raw,,,,,,,,,,,180,200,220,,220,220,M,D,
2,Tomáš Parížek,Slovakia,18,55.8,Teen,67.5,Raw,,,,,,,,,,,160,170,175,,175,175,M,D,
1,Dávid Horváth,Slovakia,17,74.3,Teen,82.5,Raw,,,,,,,,,,,180,200,217.5,,217.5,217.5,M,D,
2,Samuel Gonščák,Slovakia,18,76.8,Teen,82.5,Raw,,,,,,,,,,,190,217.5,225,,225,225,M,D,
3,Tobias Hvozdovič,Slovakia,16,82.4,Teen,82.5,Raw,,,,,,,,,,,170,190,200,,200,200,M,D,
4,Filip Antal,Slovakia,16,79.6,Teen,82.5,Raw,,,,,,,,,,,160,175,185,,185,185,M,D,
5,Július Tkáč,Slovakia,17,75.2,Teen,82.5,Raw,,,,,,,,,,,150,160,170,,170,170,M,D,
1,Denis Wuketich,Slovakia,21,91.9,Juniors,95,Raw,,,,,,,,,,,250,265,270,,270,270,M,D,
1,Dávid Kominko,Slovakia,21,106.1,Juniors,110,Raw,,,,,,,,,,,280,290,300,,300,300,M,D,
2,Adrián Bartoš,Slovakia,23,109.7,Juniors,110,Raw,,,,,,,,,,,270,280,290,,290,290,M,D,
3,Daniel Kmetík,Slovakia,20,103.1,Juniors,110,Raw,,,,,,,,,,,220,230,232.5,,232.5,232.5,M,D,
1,Adam Ťavoda,Slovakia,21,110.8,Juniors,125,Raw,,,,,,,,,,,250,270,300,,300,300,M,D,
2,Tomaš Bobok,Slovakia,22,118.1,Juniors,125,Raw,,,,,,,,,,,180,200,220,,220,220,M,D,
1,Michal Lapihuska,Slovakia,20,135.1,Juniors,125+,Raw,,,,,,,,,,,250,260,270,281,270,270,M,D,
1,Dominik Váradi,Slovakia,23,76.7,Juniors,82.5,Raw,,,,,,,,,,,210,225,230,,230,230,M,D,
2,Matúš Kerekeš,Slovakia,21,74.7,Juniors,82.5,Raw,,,,,,,,,,,180,192.5,200,,200,200,M,D,
1,Roman Placko,Slovakia,45,92.8,Masters,95,Raw,,,,,,,,,,,250,-260,260,,260,260,M,D,
2,Michal Švajka,Slovakia,44,94.3,Masters,95,Raw,,,,,,,,,,,207.5,220,232.5,,232.5,232.5,M,D,
1,Štefan Elischer,Slovakia,40,100.1,Masters,110,Raw,,,,,,,,,,,250,265,270,,270,270,M,D,
2,Marián Milý,Slovakia,49,103.5,Masters,110,Raw,,,,,,,,,,,240,250,260,,260,260,M,D,
3,Eduard Sidó,Slovakia,45,105.4,Masters,110,Raw,,,,,,,,,,,200,220,230,,230,230,M,D,
1,Michal Kráľ,Slovakia,41,119.4,Masters,125,Raw,,,,,,,,,,,220,230,240,,240,240,M,D,
1,Vojtech Balázs,Slovakia,43,137.1,Masters,125+,Raw,,,,,,,,,,,290,310,315,,315,315,M,D,
1,Michal Móry,Slovakia,44,78.9,Masters,82.5,Raw,,,,,,,,,,,200,210,220,,220,220,M,D,
2,Pavol Glovacký,Slovakia,45,79.8,Masters,82.5,Raw,,,,,,,,,,,150,170,180,,180,180,M,D,
1,Tam Nguyen,Slovakia,52,89.5,Masters,95,Raw,,,,,,,,,,,150,170,180,,180,180,M,D,
1,Tibor Gejdoš,Slovakia,59,105.8,Masters,110,Raw,,,,,,,,,,,230,250,265,,265,265,M,D,
2,Milan Pado,Slovakia,50,107.5,Masters,110,Raw,,,,,,,,,,,240,260,271,,271,271,M,D,
1,Marián Hudec,Slovakia,52,110.5,Masters,125,Raw,,,,,,,,,,,240,255,270,,270,270,M,D,
1,Jozef Meravý,Slovakia,73,99.7,Masters,110,Raw,,,,,,,,,,,160,170,180,,180,180,M,D,
1,Stanislav Jurčišin,Slovakia,76,114.9,Masters,125,Raw,,,,,,,,,,,115,125,135,,135,135,M,D,
1,Viktor Šafránek,Slovakia,28,60,Open,67.5,Raw,,,,,,,,,,,190,210,220,230.5,220,220,M,D,
1,Dominik Šafránek,Slovakia,31,81.7,Open,82.5,Raw,,,,,,,,,,,290,303,310,317.5,310,310,M,D,
2,Jakub Dorčák,Slovakia,26,79.9,Open,82.5,Raw,,,,,,,,,,,220,230,237.5,,237.5,237.5,M,D,
3,Marián Lipták,Slovakia,28,81.9,Open,82.5,Raw,,,,,,,,,,,220,230,240,,240,240,M,D,
1,Roman Kövári,Slovakia,24,94.5,Open,95,Raw,,,,,,,,,,,300,320.5,330,340,330,330,M,D,
2,Lukáš Prekop,Slovakia,28,92.9,Open,95,Raw,,,,,,,,,,,280,300,305,,305,305,M,D,
3,Lukáš Tlstý,Slovakia,30,84.2,Open,95,Raw,,,,,,,,,,,270,-290,290,,290,290,M,D,
4,Zdenko Bystrianský,Slovakia,33,89.7,Open,95,Raw,,,,,,,,,,,260,275,285,,285,285,M,D,
5,Samuel Daniš,Slovakia,21,92.1,Open,95,Raw,,,,,,,,,,,275,-300,300,,300,300,M,D,
6,Dominik Farkaš,Slovakia,25,91.8,Open,95,Raw,,,,,,,,,,,250,-265,265,,265,265,M,D,
7,Ján Mikuláš,Slovakia,26,89.2,Open,95,Raw,,,,,,,,,,,235,245,255,,255,255,M,D,
8,Šimon Michalov,Slovakia,31,91.9,Open,95,Raw,,,,,,,,,,,210,220,230,,230,230,M,D,
9,Martin Nižniansky,Slovakia,24,94,Open,95,Raw,,,,,,,,,,,220,-240,240,,240,240,M,D,
1,Tomáš Tóth,Slovakia,32,109.8,Open,110,Raw,,,,,,,,,,,280,300,330,345.5,330,330,M,D,
2,András Vass,Slovakia,28,95.4,Open,110,Raw,,,,,,,,,,,260,280,290,,290,290,M,D,
3,Tomáš Knotek,Slovakia,30,99.7,Open,110,Raw,,,,,,,,,,,250,265,277.5,,277.5,277.5,M,D,
1,Manuel Edlinger,Austria,38,114.1,Open,125,Raw,,,,,,,,,,,255,275,282.5,,282.5,282.5,M,D,
2,Leevi Leppäjärvi,Finland,29,115.8,Open,125,Raw,,,,,,,,,,,255,275,282.5,,282.5,282.5,M,D,
1,Róbert Šimko,Slovakia,36,143.3,Open,125+,Raw,,,,,,,,,,,300,315,,,315,315,M,D,
2,Marek Hmelár,Slovakia,31,126.4,Open,125+,Raw,,,,,,,,,,,200,210,225,,225,225,M,D,
1,Diana Štefanidesová,Slovakia,16,66.9,Teen,67.5,Multi-ply,,,,,,,,,,,100,115,120,,120,120,F,D,
1,Ákos Táncos,Slovakia,17,72.4,Teen,82.5,Multi-ply,,,,,,,,,,,200,210,220,,220,220,M,D,
1,Ján Gdovin,Slovakia,22,91.7,Juniors,95,Multi-ply,,,,,,,,,,,215,220,230,,230,230,M,D,
1,Tomáš Kríž,Slovakia,30,94.1,Open,95,Multi-ply,,,,,,,,,,,260,275,285,,285,285,M,D,
2,Ivan Lazor,Slovakia,31,84.9,Open,95,Multi-ply,,,,,,,,,,,235,252.5,255,,255,255,M,D,
3,Martin Nižniansky,Slovakia,24,94,Open,95,Multi-ply,,,,,,,,,,,230,245,255,,255,255,M,D,
1,Dávid Bendík,Slovakia,31,110,Open,110,Multi-ply,,,,,,,,,,,270,300,321,,321,321,M,D,
2,René Cicák,Slovakia,31,107.2,Open,110,Multi-ply,,,,,,,,,,,215,230,240,,240,240,M,D,
1,Péter Pintér,Slovakia,38,121,Open,125,Multi-ply,,,,,,,,,,,300,315,320,,320,320,M,D,
2,Norbert Hablicsek,Hungary,49,111.4,Open,125,Multi-ply,,,,,,,,,,,250,,,,250,250,M,D,
1,Ľubomír Samseli,Slovakia,36,80.8,Open,82.5,Multi-ply,,,,,,,,,,,230,-240,240,,240,240,M,D,
2,Tomáš Čan,Slovakia,35,77,Open,82.5,Multi-ply,,,,,,,,,,,165,175,187.5,,187.5,187.5,M,D,
1,Štefan Sokoly,Slovakia,47,94.4,Masters 40-49,95,Multi-ply,,,,,,,,,,,275,290,300,,300,300,M,D,
2,Ján Cuprišin,Slovakia,49,91.7,Masters 40-49,95,Multi-ply,,,,,,,,,,,230,245,255,,255,255,M,D,
1,Norbert Hablicsek,Hungary,49,111.4,Masters 40-49,125,Multi-ply,,,,,,,,,,,250,270,300,,300,300,M,D,
1,Michal Buranský,Slovakia,42,82.4,Masters 40-49,82.5,Multi-ply,,,,,,,,,,,247.5,-260,260,,260,260,M,D,
1,Ivan Levický,Slovakia,53,105.6,Masters 50-59,110,Multi-ply,,,,,,,,,,,280,-290.5,290.5,305,290.5,290.5,M,D,
1,Michal Červinka,Slovakia,62,93.2,Masters 60-69,95,Multi-ply,,,,,,,,,,,190,200,205,,205,205,M,D,
1,Adam Csupori,Slovakia,65,99.4,Masters 60-69,110,Multi-ply,,,,,,,,,,,220,230,240,,240,240,M,D,
