Name,Sex,Equipment,Division,BodyweightKg,WeightClassKg,Squat1Kg,Squat2Kg,Squat3Kg,Best3SquatKg,Bench1Kg,Bench2Kg,Bench3Kg,Best3BenchKg,Deadlift1Kg,Deadlift2Kg,Deadlift3Kg,Best3DeadliftKg,TotalKg,Place,Event,Country,BirthDate
Zulfia Ahmed,F,Raw,Open,50.7,52,95,102.5,-110,102.5,55,-57.5,-57.5,55,97.5,105,110,110,267.5,1,SBD,,
Sheida Nowbakht,F,Raw,Open,49.95,52,82.5,90,-95,90,40,42.5,-45,42.5,95,102.5,110,110,242.5,2,SBD,,
Domia Economides,F,Raw,Open,54.85,57,132.5,140,-145,140,67.5,70,72.5,72.5,125,135,-140,135,347.5,1,SBD,,
Rebecca McCafferty,F,Raw,Open,53.35,57,110,115,117.5,117.5,55,57.5,-60,57.5,115,125,132.5,132.5,307.5,2,SBD,,
Natasha Maw,F,Raw,Open,53.65,57,75,82.5,-87.5,82.5,45,47.5,50,50,100,110,115,115,247.5,3,SBD,,
Angelica Yassine,F,Raw,Open,62.1,63,125,130,135,135,62.5,67.5,-70,67.5,130,147.5,160,160,362.5,1,SBD,,
Haya Al-Qassar,F,Raw,Open,60.1,63,120,125,127.5,127.5,55,57.5,-60,57.5,142.5,145,150,150,335,2,SBD,,
Saja Al Balushi,F,Raw,Open,62.35,63,100,107.5,-115,107.5,45,50,-52.5,50,115,122.5,127.5,127.5,285,3,SBD,,
Ashley Rahrouh,F,Raw,Open,60.6,63,80,-85,87.5,87.5,40,-45,47.5,47.5,100,105,107.5,107.5,242.5,4,SBD,,
Natalie Maw,F,Raw,Open,61.3,63,70,77.5,82.5,82.5,40,42.5,45,45,90,97.5,102.5,102.5,230,5,SBD,,
Maryam Mansouri,F,Raw,Open,57.8,63,70,77.5,82.5,82.5,30,35,-37.5,35,80,90,97.5,97.5,215,6,SBD,,
Vanaja Nair,F,Raw,Open,61,63,60,-70,-70,60,40,-47.5,-47.5,40,60,80,-100,80,180,7,SBD,,
Szabina Matyas,F,Raw,Open,67.5,72,125,135,137.5,137.5,62.5,65,-67.5,65,125,135,140,140,342.5,1,SBD,,
Olga Kravchenko,F,Raw,Open,65.35,72,110,115,117.5,117.5,60,-62.5,-62.5,60,117.5,125,130,130,307.5,2,SBD,,
Donya Hancock,F,Raw,Open,63.75,72,105,110,112.5,112.5,57.5,60,-62.5,60,120,132.5,-137.5,132.5,305,3,SBD,,
Sharon Reid,F,Raw,Open,71,72,95,105,110,110,55,60,62.5,62.5,117.5,125,132.5,132.5,305,4,SBD,,
Falak Alrefai,F,Raw,Open,69.15,72,95,102.5,110,110,55,57.5,-60,57.5,100,115,125,125,292.5,5,SBD,,
Gulshan Kazi,F,Raw,Open,66.3,72,-95,95,100,100,40,45,47.5,47.5,125,132.5,140,140,287.5,6,SBD,,
Yuleidy Ramirez,F,Raw,Open,70.8,72,100,-120,125,125,40,50,-57.5,50,100,-120,-120,100,275,7,SBD,,
Preethi D'almeida,F,Raw,Open,67.5,72,85,-87.5,87.5,87.5,32.5,37.5,-42.5,37.5,85,95,-102.5,95,220,8,SBD,,
Alya Salem,F,Raw,Open,66.05,72,60,65,70,70,42.5,45,47.5,47.5,85,92.5,100,100,217.5,9,SBD,,
Sophia Janahi,F,Raw,Open,68.4,72,70,75,80,80,37.5,40,42.5,42.5,85,90,95,95,217.5,10,SBD,,
Morgan Gladden,F,Raw,Open,78.85,84,140,147.5,-152.5,147.5,80,85,-90,85,150,162.5,170,170,402.5,1,SBD,,
Stephanie Carte,F,Raw,Open,76.2,84,75,85,92.5,92.5,52.5,57.5,60,60,115,125,135,135,287.5,2,SBD,,
Heather Howard,F,Raw,Open,72.55,84,67.5,-75,80,80,-42.5,45,-47.5,45,70,90,102.5,102.5,227.5,3,SBD,,
Katie Shields,F,Raw,Open,82.8,84,65,70,75,75,45,50,52.5,52.5,85,92.5,-100,92.5,220,4,SBD,,
Tracy Vaughan,F,Raw,Open,75.45,84,72.5,77.5,82.5,82.5,42.5,45,-47.5,45,90,-97.5,-97.5,90,217.5,5,SBD,,
Michelle Caps,F,Raw,Open,74.95,84,-100,105,110,110,-60,-65,-65,,140,145,150,150,,DQ,SBD,,
Aisha Al Suwaidi,F,Raw,Open,115.2,84+,65,75,90,90,42.5,45,47.5,47.5,95,105,115,115,252.5,1,SBD,,
Khalifa Al Jamahi,M,Raw,Open,58.3,59,90,100,110,110,100,110,-117.5,110,130,150,170,170,390,1,SBD,,
Haitham Al Riyami,M,Raw,Open,65.7,66,180,190,-197.5,190,-100,100,-107.5,100,180,192.5,-200,192.5,482.5,1,SBD,Oman,
Nawaf Younis,M,Raw,Open,65.4,66,130,137.5,-142.5,137.5,97.5,102.5,105,105,170,180,190,190,432.5,2,SBD,,
Kristopher Greene,M,Raw,Open,72.85,74,185,195,,195,122.5,127.5,135,135,195,210,220,220,550,1,SBD,,
Amir Reza Mesforoosh,M,Raw,Open,72.9,74,150,-152.5,-155,150,107.5,115,120,120,155,170,175,175,445,2,SBD,,
Mayed Alredha,M,Raw,Open,70.25,74,137.5,145,-155,145,112.5,120,-125,120,162.5,-172.5,175,175,440,3,SBD,,
Tarek Ahmed,M,Raw,Open,72.8,74,137.5,-145,147.5,147.5,100,105,-110,105,165,175,185,185,437.5,4,SBD,,
Abood Basel,M,Raw,Open,72.75,74,130,137.5,142.5,142.5,90,95,-97.5,95,150,-160,-160,150,387.5,5,SBD,,
Martin Dewhurst,M,Raw,Open,71.9,74,87.5,-95,100,100,75,82.5,-90,82.5,120,132.5,145,145,327.5,6,SBD,,
Saif Alshemili,M,Raw,Open,73.5,74,80,-90,-100,80,80,-90,100,100,110,120,140,140,320,7,SBD,,
Stanislav Zdrobylko,M,Raw,Open,81.4,83,230,240,250,250,165,-175,175,175,-240,240,255,255,680,1,SBD,,
Hadi Alsharaf,M,Raw,Open,82.35,83,-200,200,215,215,130,137.5,-140,137.5,280,290,-300,290,642.5,2,SBD,,
Asad Ikram,M,Raw,Open,80.85,83,-180,185,192.5,192.5,115,122.5,-127.5,122.5,230,242.5,247.5,247.5,562.5,3,SBD,,
Ahmed Alnaqbi,M,Raw,Open,81.8,83,-180,-180,180,180,150,160,-165,160,180,200,215,215,555,4,SBD,,
Rey Sawan,M,Raw,Open,82.6,83,175,185,-192.5,185,-112.5,115,-117.5,115,215,230,-240,230,530,5,SBD,,
Marcus Flanagan,M,Raw,Open,82.95,83,162.5,-172.5,-180,162.5,115,120,-122.5,120,180,200,-220,200,482.5,6,SBD,,
Rashid Al Balushi,M,Raw,Open,81.85,83,155,165,-170,165,85,90,-92.5,90,185,197.5,-207.5,197.5,452.5,7,SBD,,
Omar Al Saadi,M,Raw,Open,81.2,83,-150,-150,150,150,102.5,-107.5,107.5,107.5,167.5,175,180,180,437.5,8,SBD,,
Ghazi Jeiroudi,M,Raw,Open,79.8,83,130,137.5,145,145,107.5,-112.5,-112.5,107.5,155,165,172.5,172.5,425,9,SBD,,
Mohamad Alzari,M,Raw,Open,80.7,83,80,100,-115,100,-130,132.5,140,140,140,155,162.5,162.5,402.5,10,SBD,,
Ardalan Saberi,M,Raw,Open,82.05,83,120,130,137.5,137.5,95,100,105,105,-150,160,-170,160,402.5,11,SBD,,
Mostafa Hazem,M,Raw,Open,91,93,180,192.5,205,205,155,165,170,170,250,272.5,-285,272.5,647.5,1,SBD,,
Kareem Owais,M,Raw,Open,92.55,93,200,210,-220,210,-150,150,-152.5,150,250,270,-280,270,630,2,SBD,,
Nabih Seifeddine,M,Raw,Open,91.5,93,207.5,215,220,220,145,-150,150,150,225,245,-260,245,615,3,SBD,,
Hilal Jafar,M,Raw,Open,90.1,93,180,190,200,200,140,147.5,-152.5,147.5,235,245,-255,245,592.5,4,SBD,,
Ahmed Al-Kashri,M,Raw,Open,92.8,93,200,212.5,-217.5,212.5,120,127.5,-132.5,127.5,210,222.5,230,230,570,5,SBD,,
Kenan Saaloukeh,M,Raw,Open,92.75,93,200,207.5,215,215,120,125,-130,125,200,212.5,225,225,565,6,SBD,,
Mathew Beenham,M,Raw,Open,83.44,93,177.5,190,-200,190,117.5,125,127.5,127.5,205,217.5,-220,217.5,535,7,SBD,,
Rauhan Lasharie,M,Raw,Open,90.4,93,170,177.5,182.5,182.5,-122.5,-125,130,130,202.5,207.5,215,215,527.5,8,SBD,,
Abdulrahman Saadi,M,Raw,Open,92.65,93,150,155,160,160,115,120,122.5,122.5,180,187.5,192.5,192.5,475,9,SBD,,
Richard Pavitt,M,Raw,Open,91.9,93,152.5,162.5,-167.5,162.5,105,110,112.5,112.5,175,190,195,195,470,10,SBD,,
Mark Tulloss,M,Raw,Open,91.7,93,150,160,-165,160,130,140,-142.5,140,165,-172.5,-177.5,165,465,11,SBD,,
Ramee Trivedi,M,Raw,Open,90.95,93,130,137.5,142.5,142.5,90,95,-100,95,170,187.5,200,200,437.5,12,SBD,,
Firas Almansour,M,Raw,Open,90.05,93,85,95,105,105,65,75,-80,75,110,125,135,135,315,13,SBD,,
Talal Al Kindi,M,Raw,Open,103.65,105,225,235,242.5,242.5,150,157.5,162.5,162.5,-250,250,270,270,675,1,SBD,,
Darren Wilmot,M,Raw,Open,93.8,105,175,190,200,200,145,152.5,-157.5,152.5,225,245,255,255,607.5,2,SBD,,
Mohammed Sabra,M,Raw,Open,101.75,105,205,215,220,220,130,135,-140,135,220,235,245,245,600,3,SBD,,
Tom Cox,M,Raw,Open,104.75,105,192.5,205,215,215,132.5,137.5,-140,137.5,210,230,240,240,592.5,4,SBD,,
Ali Salah AlAmeri,M,Raw,Open,96.55,105,170,180,200,200,145,150,155,155,170,185,205,205,560,5,SBD,,
Raju Pal,M,Raw,Open,100.65,105,177.5,187.5,197.5,197.5,105,112.5,117.5,117.5,205,225,235,235,550,6,SBD,,
Bethany Galendo,M,Raw,Open,99.15,105,155,165,177.5,177.5,155,160,165,165,155,185,190,190,532.5,7,SBD,,
Sylvester Batista,M,Raw,Open,101.1,105,177.5,187.5,200,200,115,120,-127.5,120,180,200,-210,200,520,8,SBD,,
Abdullah Haj Hussin,M,Raw,Open,118.35,120,-250,-250,250,250,180,185,-190,185,260,270,-280,270,705,1,SBD,,
Samer Al-Basha,M,Raw,Open,109.2,120,230,242.5,250,250,160,-170,170,170,255,275,-280,275,695,2,SBD,,
Saleh Alruwayti,M,Raw,Open,109.95,120,170,180,-190,180,115,120,-125,120,225,235,-247.5,235,535,3,SBD,,
Salman Salem,M,Raw,Open,157.2,120+,-270,-275,275,275,180,190,-200,190,300,310,-320,310,775,1,SBD,Bahrain,
Fadl Faour,M,Raw,Open,123.6,120+,180,-195,200,200,-110,120,132.5,132.5,180,195,210,210,542.5,2,SBD,,
Benjamin Malloch,M,Raw,Open,120.6,120+,160,170,180,180,115,122.5,-125,122.5,210,220,-227.5,220,522.5,3,SBD,,
