Place,Name,Sex,BirthDate,Age,State,Equipment,Division,BodyweightKg,WeightClassKg,Squat1Kg,Squat2Kg,Squat3Kg,Best3SquatKg,Bench1Kg,Bench2Kg,Bench3Kg,Best3BenchKg,Deadlift1Kg,Deadlift2Kg,Deadlift3Kg,Deadlift4Kg,Best3DeadliftKg,TotalKg,Event
1,Sharon Weiss,F,1976-12-17,46,,Wraps,M40-49,54.7,56,85,90,-95,90,45,47.5,50,50,105,110,115,,115,255,SBD
1,Bec Crombie,F,1982-09-19,40,,Wraps,M40-49,59.1,60,125,132.5,-140,132.5,60,65,67.5,67.5,125,132.5,-137.5,,132.5,332.5,SBD
1,Lydia Hantke,F,1977-04-29,45,,Wraps,M40-49,86,90,195,205,,205,107.5,112.5,,112.5,245,255,,,255,572.5,SBD
1,Katie Kocanda,F,1969-06-05,53,,Wraps,M50-59,54.8,56,85,90,-100,90,47.5,50,-55,50,112.5,120,-135,,120,260,SBD
1,Michelle Nunn,F,1970-06-03,52,,Wraps,M50-59,73.9,75,90,-100,-100,90,60,-65,65,65,120,135,140,,140,295,SBD
1,Gillian Fraser,F,1959-05-02,63,,Wraps,M60-69,68.3,75,60,65,70,70,45,47.5,50,50,85,95,100,,100,220,SBD
1,Crystal Hadley Mackay,F,1986-12-14,36,,Wraps,Open,51.5,52,107.5,112.5,117.5,117.5,52.5,57.5,-60,57.5,137.5,145,151,,151,326,SBD
1,Esther Wang,F,1996-11-24,26,,Wraps,Open,55.2,56,110,-117.5,117.5,117.5,42.5,45,-47.5,45,105,115,120,,120,282.5,SBD
1,Coorinna Burgess,F,1989-12-06,33,,Wraps,Open,59.1,60,147.5,155,160,160,70,72.5,-75,72.5,145,150,-155,,150,382.5,SBD
2,Kyna Leong,F,1986-10-29,36,,Wraps,Open,58.9,60,130,140,-147.5,140,57.5,62.5,-65,62.5,150,157.5,165,,165,367.5,SBD
3,Hanna Evans,F,1994-08-16,28,,Wraps,Open,58.3,60,100,-115,-120,100,45,52.5,-60,52.5,110,130,140,,140,292.5,SBD
1,Chantelle Gauci,F,1998-07-07,24,,Wraps,Open,65.9,67.5,155,162.5,-167.5,162.5,62.5,67.5,70,70,182.5,-192.5,192.5,-201,192.5,425,SBD
2,Charlotte Miller,F,1993-10-19,29,,Wraps,Open,63.9,67.5,115,120,130,130,62.5,65,67.5,67.5,130,140,145,,145,342.5,SBD
3,Ines Naylor,F,1999-01-14,24,,Wraps,Open,64,67.5,107.5,117.5,-122.5,117.5,60,65,67.5,67.5,105,115,125,,125,310,SBD
1,Lynsey Barr,F,1983-04-10,39,,Wraps,Open,72.9,75,130,135,-140,135,65,70,75,75,175,190,-195,,190,400,SBD
2,Holly Moore,F,1990-11-14,32,,Wraps,Open,74.7,75,75,85,90,90,50,-57.5,-57.5,50,90,105,120,,120,260,SBD
1,Lily Riley,F,1995-04-28,27,,Wraps,Open,78.3,82.5,250,265,,265,115,120,,120,225,235,,,235,620,SBD
1,Jessica Nugent,F,1993-01-18,30,,Wraps,Open,89,90,185,200,215,215,82.5,90,-92.5,90,175,195,205,,205,510,SBD
2,Emma Farrell,F,1986-11-22,36,,Wraps,Open,88.2,90,110,125,135,135,52.5,-57.5,-57.5,52.5,120,130,137.5,,137.5,325,SBD
1,Sabella Gibson,F,1998-01-16,25,,Wraps,Open,115.6,90+,100,110,115,115,50,55,60,60,100,115,130,,130,305,SBD
2,Kasey Daley,F,1991-11-09,31,,Wraps,Open,100.8,90+,105,115,125,125,45,55,-60,55,105,120,-130,,120,300,SBD
3,Laura Jefferson,F,1990-11-05,32,,Wraps,Open,117.8,90+,80,95,110,110,55,60,-65,60,105,115,120,,120,290,SBD
1,Michelle Woods,F,2003-04-01,19,,Wraps,S17-19,79.4,82.5,90,105,-110,105,40,50,55,55,85,100,110,,110,270,SBD
DQ,Summer Mosley,F,2004-02-15,19,,Wraps,S17-19,78.5,82.5,125,145,-155,145,40,45,-52.5,45,,,,,,,SBD
1,Rebecca Christian,F,1978-07-26,44,,Raw,M40-49,77.6,82.5,,,,,57.5,62.5,-67.5,62.5,125,135,140,,140,202.5,BD
1,Lex Olarenshaw,F,1991-04-28,31,,Raw,Open,88.6,90,,,,,50,52.5,-55,52.5,112.5,120,125,,125,177.5,BD
1,Maddison Vaughan,F,2006-03-11,17,,Raw,J17-19,76.1,82.5,,,,,30,40,45,45,95,105,-115,,105,150,BD
1,Charlotte Collins,F,2007-12-01,15,,Raw,J14-16,85.5,90,,,,,,,,,135,150,-160,,150,150,D
1,Caelum Ellis,M,2003-01-03,20,,Wraps,J20-23,67.5,67.5,160,172.5,182.5,182.5,80,87.5,-95,87.5,180,205,-226,,205,475,SBD
1,Greg Sharp,M,1999-09-02,23,,Wraps,J20-23,81,82.5,160,180,190,190,90,100,-110,100,165,185,-200,,185,475,SBD
1,Samuel Ernst,M,1990-09-28,32,,Wraps,Open,68,75,170,180,190,190,130,140,150,150,-170,175,190,,190,530,SBD
2,Jake Smith #10,M,1997-02-17,26,,Wraps,Open,70.4,75,155,170,175,175,90,105,115,115,150,165,-180,,165,455,SBD
3,Naomi Kolski,F,1988-12-12,34,,Wraps,Open,74.2,75,110,115,120,120,55,57.5,60,60,145,155,162.5,,162.5,342.5,SBD
1,Brenton Moore,M,1989-01-13,34,,Wraps,Open,81.4,82.5,145,-155,-160,145,100,-110,110,110,180,192.5,-200,,192.5,447.5,SBD
1,Justen Hadley Mackay,M,1993-01-13,30,,Wraps,Open,90,90,215,230,235,235,160,170,180,180,230,240,-250,,240,655,SBD
2,James Dwyer #2,M,,28,,Wraps,Open,85.1,90,230,240,-250,240,120,130,-140,130,235,245,-255,,245,615,SBD
3,Anthony Chalouhi,M,1996-07-11,26,,Wraps,Open,88.9,90,157.5,170,182.5,182.5,130,145,150,150,227.5,240,-250,,240,572.5,SBD
4,Jamie Stewart,M,1985-08-05,37,,Wraps,Open,88.4,90,200,-215,220,220,100,105,-110,105,210,220,-225,,220,545,SBD
5,James Kirkby,M,1997-09-13,25,,Wraps,Open,84.6,90,160,170,-180,170,100,105,-112.5,105,195,205,212.5,,212.5,487.5,SBD
1,Matthew Lynch #1,M,1996-09-16,26,,Wraps,Open,99.5,100,255,-270,-280,255,162.5,167.5,-172.5,167.5,270,285,300,,300,722.5,SBD
2,Aaron Ratcliffe,M,1992-12-11,30,,Wraps,Open,99.3,100,220,-240,-240,220,175,185,200,200,240,265,275,,275,695,SBD
1,Gavin Ratcliffe,M,1989-10-19,33,,Wraps,Open,108.2,110,265,-280,280,280,170,180,190,190,260,280,-292.5,,280,750,SBD
2,Adam McInerney,M,,44,NSW,Wraps,Open,108.6,110,240,-250,-250,240,150,160,170,170,250,265,270,,270,680,SBD
3,Zackary DeRooy,M,1993-04-14,29,,Wraps,Open,108.4,110,220,-235,-235,220,125,-135,-135,125,-240,-240,240,,240,585,SBD
4,Jesse Hansell,M,1997-07-03,25,,Wraps,Open,104.2,110,160,180,200,200,110,135,142.5,142.5,175,205,220,,220,562.5,SBD
5,Pouya Marghzari,M,1994-12-16,28,,Wraps,Open,103.2,110,-180,195,-202.5,195,110,115,120,120,185,200,207.5,,207.5,522.5,SBD
1,Benjamin Wells,M,,28,,Wraps,Open,117.2,125,260,272.5,-280,272.5,155,162.5,-170,162.5,282.5,300,-305,,300,735,SBD
2,Dale McLean,M,1985-10-29,37,,Wraps,Open,121,125,210,225,-235,225,125,135,142.5,142.5,235,255,272.5,,272.5,640,SBD
3,Jack Daley,M,1991-09-29,31,,Wraps,Open,124.2,125,230,-250,-250,230,125,135,-145,135,230,-240,-240,,230,595,SBD
1,Joseph Whittaker,M,1985-10-20,37,,Wraps,Open,140,140,415,435,-455,435,240,250,260,260,305,330,360,,360,1055,SBD
1,Harley Kebbe,M,1995-12-15,27,,Wraps,Open,145,140+,330,350,-375,350,217.5,230,237.5,237.5,255,270,280,,280,867.5,SBD
1,Nicholas Christian,M,2008-04-18,14,,Wraps,J14-16,53.5,56,100,-110,-115,100,60,65,70,70,130,140,-150,,140,310,SBD
1,Michael Napper,M,2007-04-11,15,,Wraps,J14-16,65.1,67.5,-110,-115,117.5,117.5,75,85,95,95,160,175,180,,180,392.5,SBD
1,Sebastian Garrido,M,2005-12-12,17,,Wraps,J17-19,63.7,67.5,130,-140,-140,130,80,90,-100,90,180,190,200,,200,420,SBD
1,Zac Wheeldon,M,2006-12-13,16,,Wraps,J14-16,83.2,90,185,200,,200,110,-115,115,115,200,220,225,,225,540,SBD
1,Alex Vardanega,M,2004-01-11,19,,Wraps,S17-19,67.1,67.5,175,195,205,205,95,100,-102.5,100,210,220,-230,,220,525,SBD
1,Abdulsalem Tlais,M,2004-09-20,18,,Wraps,S17-19,71.3,75,117.5,125,-130,125,87.5,92.5,95,95,-195,-200,200,,200,420,SBD
1,Darren Tindall,M,1970-10-09,52,,Raw,M50-59,184.4,140+,,,,,70,82.5,-90,82.5,150,-165,172.5,,172.5,255,BD
1,Robert Hoxha,M,1959-12-14,63,,Raw,M60-69,74,75,,,,,,,,,175,180,190,,190,190,D
1,Scott Cassidy,M,1997-12-10,25,,Raw,Open,87.2,90,,,,,,,,,220,240,-252.5,,240,240,D
